EESchema Schematic File Version 2
LIBS:power
LIBS:device
LIBS:transistors
LIBS:conn
LIBS:linear
LIBS:regul
LIBS:74xx
LIBS:cmos4000
LIBS:adc-dac
LIBS:memory
LIBS:xilinx
LIBS:microcontrollers
LIBS:dsp
LIBS:microchip
LIBS:analog_switches
LIBS:motorola
LIBS:texas
LIBS:intel
LIBS:audio
LIBS:interface
LIBS:digital-audio
LIBS:philips
LIBS:display
LIBS:cypress
LIBS:siliconi
LIBS:opto
LIBS:atmel
LIBS:contrib
LIBS:valves
LIBS:carte_puissance_fille-cache
EELAYER 25 0
EELAYER END
$Descr A4 11693 8268
encoding utf-8
Sheet 1 1
Title ""
Date ""
Rev ""
Comp ""
Comment1 ""
Comment2 ""
Comment3 ""
Comment4 ""
$EndDescr
$Comp
L +15V #PWR01
U 1 1 5CAB3B7A
P 6500 2400
F 0 "#PWR01" H 6500 2250 50  0001 C CNN
F 1 "+15V" H 6500 2540 50  0000 C CNN
F 2 "" H 6500 2400 50  0000 C CNN
F 3 "" H 6500 2400 50  0000 C CNN
	1    6500 2400
	1    0    0    -1  
$EndComp
$Comp
L GND #PWR02
U 1 1 5CAB3B8E
P 7150 3800
F 0 "#PWR02" H 7150 3550 50  0001 C CNN
F 1 "GND" H 7150 3650 50  0000 C CNN
F 2 "" H 7150 3800 50  0000 C CNN
F 3 "" H 7150 3800 50  0000 C CNN
	1    7150 3800
	1    0    0    -1  
$EndComp
$Comp
L +9V #PWR03
U 1 1 5CAB3BA2
P 7800 2400
F 0 "#PWR03" H 7800 2250 50  0001 C CNN
F 1 "+9V" H 7800 2540 50  0000 C CNN
F 2 "" H 7800 2400 50  0000 C CNN
F 3 "" H 7800 2400 50  0000 C CNN
	1    7800 2400
	1    0    0    -1  
$EndComp
$Comp
L CONN_01X01 P1
U 1 1 5CAB3BBC
P 6950 2500
F 0 "P1" H 6950 2600 50  0000 C CNN
F 1 "CONN_01X01" V 7050 2500 50  0001 C CNN
F 2 "Connector_PinHeader_2.54mm:PinHeader_1x01_P2.54mm_Vertical" H 6950 2500 50  0001 C CNN
F 3 "" H 6950 2500 50  0000 C CNN
	1    6950 2500
	1    0    0    -1  
$EndComp
$Comp
L CONN_01X01 P4
U 1 1 5CAB3CCD
P 7350 3500
F 0 "P4" H 7350 3600 50  0000 C CNN
F 1 "CONN_01X01" V 7450 3500 50  0001 C CNN
F 2 "Connector_PinHeader_2.54mm:PinHeader_1x01_P2.54mm_Vertical" H 7350 3500 50  0001 C CNN
F 3 "" H 7350 3500 50  0000 C CNN
	1    7350 3500
	-1   0    0    1   
$EndComp
$Comp
L CONN_01X01 P5
U 1 1 5CAB3D3E
P 7350 3250
F 0 "P5" H 7350 3350 50  0000 C CNN
F 1 "CONN_01X01" V 7450 3250 50  0001 C CNN
F 2 "Connector_PinHeader_2.54mm:PinHeader_1x01_P2.54mm_Vertical" H 7350 3250 50  0001 C CNN
F 3 "" H 7350 3250 50  0000 C CNN
	1    7350 3250
	-1   0    0    1   
$EndComp
$Comp
L CONN_01X01 P6
U 1 1 5CAB3D86
P 7350 3000
F 0 "P6" H 7350 3100 50  0000 C CNN
F 1 "CONN_01X01" V 7450 3000 50  0001 C CNN
F 2 "Connector_PinHeader_2.54mm:PinHeader_1x01_P2.54mm_Vertical" H 7350 3000 50  0001 C CNN
F 3 "" H 7350 3000 50  0000 C CNN
	1    7350 3000
	-1   0    0    1   
$EndComp
$Comp
L CONN_01X01 P7
U 1 1 5CAB3DAF
P 7350 2750
F 0 "P7" H 7350 2850 50  0000 C CNN
F 1 "CONN_01X01" V 7450 2750 50  0001 C CNN
F 2 "Connector_PinHeader_2.54mm:PinHeader_1x01_P2.54mm_Vertical" H 7350 2750 50  0001 C CNN
F 3 "" H 7350 2750 50  0000 C CNN
	1    7350 2750
	-1   0    0    1   
$EndComp
$Comp
L CONN_01X01 P8
U 1 1 5CAB3E00
P 7350 2500
F 0 "P8" H 7350 2600 50  0000 C CNN
F 1 "CONN_01X01" V 7450 2500 50  0001 C CNN
F 2 "Connector_PinHeader_2.54mm:PinHeader_1x01_P2.54mm_Vertical" H 7350 2500 50  0001 C CNN
F 3 "" H 7350 2500 50  0000 C CNN
	1    7350 2500
	-1   0    0    1   
$EndComp
$Comp
L CONN_01X01 P2
U 1 1 5CAB3E39
P 6950 3000
F 0 "P2" H 6950 3100 50  0000 C CNN
F 1 "CONN_01X01" V 7050 3000 50  0001 C CNN
F 2 "Connector_PinHeader_2.54mm:PinHeader_1x01_P2.54mm_Vertical" H 6950 3000 50  0001 C CNN
F 3 "" H 6950 3000 50  0000 C CNN
	1    6950 3000
	1    0    0    -1  
$EndComp
$Comp
L CONN_01X01 P3
U 1 1 5CAB3E9A
P 6950 3500
F 0 "P3" H 6950 3600 50  0000 C CNN
F 1 "CONN_01X01" V 7050 3500 50  0001 C CNN
F 2 "Connector_PinHeader_2.54mm:PinHeader_1x01_P2.54mm_Vertical" H 6950 3500 50  0001 C CNN
F 3 "" H 6950 3500 50  0000 C CNN
	1    6950 3500
	1    0    0    -1  
$EndComp
Wire Notes Line
	6850 2350 7450 2350
Wire Notes Line
	7450 2350 7450 3650
Wire Notes Line
	7450 3650 6850 3650
Wire Notes Line
	6850 3650 6850 2350
Text Label 6800 2300 0    60   ~ 0
i3A4W005A150V
Wire Wire Line
	6750 3000 6750 3750
Wire Wire Line
	6750 3750 7900 3750
Wire Wire Line
	7150 3800 7150 3750
Connection ~ 7150 3750
Wire Wire Line
	6500 2400 6500 2500
Wire Wire Line
	6500 2500 6750 2500
Wire Wire Line
	7800 2500 7800 2400
Connection ~ 6750 3500
$Comp
L R R1
U 1 1 5CAB4210
P 7900 3500
F 0 "R1" V 7980 3500 50  0000 C CNN
F 1 "2400" V 7900 3500 50  0000 C CNN
F 2 "" V 7830 3500 50  0000 C CNN
F 3 "" H 7900 3500 50  0000 C CNN
	1    7900 3500
	1    0    0    -1  
$EndComp
$Comp
L POT RV1
U 1 1 5CAB4275
P 7900 3000
F 0 "RV1" V 7725 3000 50  0000 C CNN
F 1 "1000" V 7800 3000 50  0000 C CNN
F 2 "Potentiometers:Potentiometer_VishaySpectrol-Econtrim-Type36k" H 7900 3000 50  0001 C CNN
F 3 "" H 7900 3000 50  0000 C CNN
	1    7900 3000
	-1   0    0    1   
$EndComp
Wire Wire Line
	7550 3000 7750 3000
Wire Wire Line
	7900 3150 7900 3350
Wire Wire Line
	7900 3750 7900 3650
Connection ~ 7550 3750
Wire Wire Line
	7550 2750 7550 2500
Wire Wire Line
	7550 2500 7800 2500
Wire Wire Line
	7550 3500 7550 3750
$EndSCHEMATC
