EESchema Schematic File Version 2
LIBS:power
LIBS:device
LIBS:transistors
LIBS:conn
LIBS:linear
LIBS:regul
LIBS:74xx
LIBS:cmos4000
LIBS:adc-dac
LIBS:memory
LIBS:xilinx
LIBS:microcontrollers
LIBS:dsp
LIBS:microchip
LIBS:analog_switches
LIBS:motorola
LIBS:texas
LIBS:intel
LIBS:audio
LIBS:interface
LIBS:digital-audio
LIBS:philips
LIBS:display
LIBS:cypress
LIBS:siliconi
LIBS:opto
LIBS:atmel
LIBS:contrib
LIBS:valves
LIBS:carte_puissance-cache
EELAYER 25 0
EELAYER END
$Descr A3 16535 11693
encoding utf-8
Sheet 1 1
Title "Carte_puissance_spectro_HR460"
Date "2018-11-08"
Rev "V1.0"
Comp "IOGS"
Comment1 "Vincent Couturier-Ferreboeuf"
Comment2 ""
Comment3 ""
Comment4 ""
$EndDescr
$Comp
L LM317AT U2
U 1 1 5BE15901
P 8600 1350
F 0 "U2" H 8400 1550 50  0000 C CNN
F 1 "LM338" H 8600 1550 50  0000 L CNN
F 2 "TO_SOT_Packages_THT:TO-220_Neutral123_Vertical" H 8600 1450 50  0001 C CIN
F 3 "" H 8600 1350 50  0000 C CNN
	1    8600 1350
	1    0    0    -1  
$EndComp
$Comp
L Earth #PWR01
U 1 1 5BE15A1D
P 8600 2100
F 0 "#PWR01" H 8600 1850 50  0001 C CNN
F 1 "Earth" H 8600 1950 50  0001 C CNN
F 2 "" H 8600 2100 50  0000 C CNN
F 3 "" H 8600 2100 50  0000 C CNN
	1    8600 2100
	1    0    0    -1  
$EndComp
$Comp
L +5V #PWR02
U 1 1 5BE15A33
P 9600 1300
F 0 "#PWR02" H 9600 1150 50  0001 C CNN
F 1 "+5V" H 9600 1440 50  0000 C CNN
F 2 "" H 9600 1300 50  0000 C CNN
F 3 "" H 9600 1300 50  0000 C CNN
	1    9600 1300
	1    0    0    -1  
$EndComp
$Comp
L R R1
U 1 1 5BE15B07
P 9000 1600
F 0 "R1" V 9080 1600 50  0000 C CNN
F 1 "120" V 9000 1600 50  0000 C CNN
F 2 "Resistors_SMD:R_1206" V 8930 1600 50  0001 C CNN
F 3 "" H 9000 1600 50  0000 C CNN
	1    9000 1600
	1    0    0    -1  
$EndComp
$Comp
L C C1
U 1 1 5BE15BD4
P 8100 1600
F 0 "C1" H 8125 1700 50  0000 L CNN
F 1 "0.1µF" H 8125 1500 50  0000 L CNN
F 2 "Capacitors_SMD:C_1206" H 8138 1450 50  0001 C CNN
F 3 "" H 8100 1600 50  0000 C CNN
	1    8100 1600
	1    0    0    -1  
$EndComp
$Comp
L CP CP1
U 1 1 5BE15C4D
P 9300 1600
F 0 "CP1" H 9325 1700 50  0000 L CNN
F 1 "1µF" H 9325 1500 50  0000 L CNN
F 2 "Capacitors_SMD:C_1206" H 9338 1450 50  0001 C CNN
F 3 "" H 9300 1600 50  0000 C CNN
	1    9300 1600
	1    0    0    -1  
$EndComp
$Comp
L ULN2003A U1
U 1 1 5BE161FA
P 1950 9050
F 0 "U1" H 1950 9150 50  0000 C CNN
F 1 "ULN2003A" H 1950 8950 50  0000 C CNN
F 2 "Housings_SOIC:SOIC-16_3.9x9.9mm_Pitch1.27mm" H 1950 9050 50  0001 C CNN
F 3 "" H 1950 9050 50  0000 C CNN
	1    1950 9050
	1    0    0    -1  
$EndComp
Text GLabel 1100 1150 0    60   Input ~ 0
M1_1
Text GLabel 1100 1250 0    60   Input ~ 0
M1_2
Text GLabel 1100 1350 0    60   Input ~ 0
M1_3
Text GLabel 1100 1450 0    60   Input ~ 0
M1_4
Text GLabel 1100 1550 0    60   Input ~ 0
M1_5
Text GLabel 1100 1650 0    60   Input ~ 0
M1_6
NoConn ~ 2600 9050
NoConn ~ 2600 9150
NoConn ~ 2600 9250
$Comp
L +5V #PWR03
U 1 1 5BE167AF
P 2800 9200
F 0 "#PWR03" H 2800 9050 50  0001 C CNN
F 1 "+5V" H 2800 9340 50  0000 C CNN
F 2 "" H 2800 9200 50  0000 C CNN
F 3 "" H 2800 9200 50  0000 C CNN
	1    2800 9200
	1    0    0    -1  
$EndComp
$Comp
L POT Pot1
U 1 1 5BE15CA6
P 8450 1900
F 0 "Pot1" V 8275 1900 50  0000 C CNN
F 1 "1000" V 8350 1900 50  0000 C CNN
F 2 "Potentiometers:Potentiometer_VishaySpectrol-Econtrim-Type36k" H 8450 1900 50  0001 C CNN
F 3 "T73YE102KT20" H 8450 1900 50  0001 C CNN
	1    8450 1900
	1    0    0    -1  
$EndComp
$Comp
L Earth #PWR04
U 1 1 5BE16FF9
P 1250 9350
F 0 "#PWR04" H 1250 9100 50  0001 C CNN
F 1 "Earth" H 1250 9200 50  0001 C CNN
F 2 "" H 1250 9350 50  0000 C CNN
F 3 "" H 1250 9350 50  0000 C CNN
	1    1250 9350
	1    0    0    -1  
$EndComp
Text Notes 4200 8500 2    60   ~ 0
Moteur fente 1, tire 1.4 A max
$Comp
L ULN2003A U3
U 1 1 5BE1732E
P 1950 10300
F 0 "U3" H 1950 10400 50  0000 C CNN
F 1 "ULN2003A" H 1950 10200 50  0000 C CNN
F 2 "Housings_SOIC:SOIC-16_3.9x9.9mm_Pitch1.27mm" H 1950 10300 50  0001 C CNN
F 3 "" H 1950 10300 50  0000 C CNN
	1    1950 10300
	1    0    0    -1  
$EndComp
Text GLabel 2800 9900 2    60   Output ~ 0
M2_1
Text GLabel 2900 10500 2    60   Output ~ 0
M2_2
Text GLabel 2800 10000 2    60   Output ~ 0
M2_3
Text GLabel 2800 10100 2    60   Output ~ 0
M2_4
Text GLabel 2900 10700 2    60   Output ~ 0
M2_5
Text GLabel 2800 10200 2    60   Output ~ 0
M2_6
NoConn ~ 2600 10300
NoConn ~ 2600 10400
NoConn ~ 2600 10500
$Comp
L +5V #PWR05
U 1 1 5BE1733D
P 2800 10450
F 0 "#PWR05" H 2800 10300 50  0001 C CNN
F 1 "+5V" H 2800 10590 50  0000 C CNN
F 2 "" H 2800 10450 50  0000 C CNN
F 3 "" H 2800 10450 50  0000 C CNN
	1    2800 10450
	1    0    0    -1  
$EndComp
$Comp
L Earth #PWR06
U 1 1 5BE1734C
P 1250 10600
F 0 "#PWR06" H 1250 10350 50  0001 C CNN
F 1 "Earth" H 1250 10450 50  0001 C CNN
F 2 "" H 1250 10600 50  0000 C CNN
F 3 "" H 1250 10600 50  0000 C CNN
	1    1250 10600
	1    0    0    -1  
$EndComp
Text Notes 4200 9750 2    60   ~ 0
Moteur fente 2, tire 1.4 A max
Text GLabel 12350 7350 1    60   Output ~ 0
M3-
Text GLabel 12350 6650 3    60   Output ~ 0
M3+
$Comp
L ULN2003A U8
U 1 1 5BE17610
P 12100 9100
F 0 "U8" H 12100 9200 50  0000 C CNN
F 1 "ULN2003A" H 12100 9000 50  0000 C CNN
F 2 "Housings_SOIC:SOIC-16_3.9x9.9mm_Pitch1.27mm" H 12100 9100 50  0001 C CNN
F 3 "" H 12100 9100 50  0000 C CNN
	1    12100 9100
	1    0    0    -1  
$EndComp
Text Notes 2350 9700 2    60   ~ 0
1.35 mA par entrée
$Comp
L GND #PWR07
U 1 1 5BE18E60
P 8800 2100
F 0 "#PWR07" H 8800 1850 50  0001 C CNN
F 1 "GND" H 8800 1950 50  0000 C CNN
F 2 "" H 8800 2100 50  0000 C CNN
F 3 "" H 8800 2100 50  0000 C CNN
	1    8800 2100
	1    0    0    -1  
$EndComp
NoConn ~ 8450 1750
$Comp
L D D2
U 1 1 5BE19328
P 13100 6550
F 0 "D2" H 13100 6650 50  0000 C CNN
F 1 "SBR3U40S1F-7" H 13100 6450 50  0001 C CNN
F 2 "Diodes_SMD:SOD-123" H 13100 6550 50  0001 C CNN
F 3 "" H 13100 6550 50  0000 C CNN
	1    13100 6550
	1    0    0    -1  
$EndComp
$Comp
L D D3
U 1 1 5BE1938B
P 11900 7450
F 0 "D3" H 11900 7550 50  0000 C CNN
F 1 "SBR3U40S1F-7" H 11900 7350 50  0001 C CNN
F 2 "Diodes_SMD:SOD-123" H 11900 7450 50  0001 C CNN
F 3 "" H 11900 7450 50  0000 C CNN
	1    11900 7450
	1    0    0    -1  
$EndComp
$Comp
L D D4
U 1 1 5BE193E4
P 11900 6550
F 0 "D4" H 11900 6650 50  0000 C CNN
F 1 "SBR3U40S1F-7" H 11900 6450 50  0001 C CNN
F 2 "Diodes_SMD:SOD-123" H 11900 6550 50  0001 C CNN
F 3 "" H 11900 6550 50  0000 C CNN
	1    11900 6550
	1    0    0    -1  
$EndComp
$Comp
L D D1
U 1 1 5BE19499
P 13100 7450
F 0 "D1" H 13100 7550 50  0000 C CNN
F 1 "SBR3U40S1F-7" H 13100 7350 50  0001 C CNN
F 2 "Diodes_SMD:SOD-123" H 13100 7450 50  0001 C CNN
F 3 "" H 13100 7450 50  0000 C CNN
	1    13100 7450
	1    0    0    -1  
$EndComp
$Comp
L LM317AT U4
U 1 1 5BE1A1D6
P 8700 6850
F 0 "U4" H 8500 7050 50  0000 C CNN
F 1 "LM338" H 8700 7050 50  0000 L CNN
F 2 "TO_SOT_Packages_THT:TO-220_Neutral123_Vertical" H 8700 6950 50  0001 C CIN
F 3 "" H 8700 6850 50  0000 C CNN
	1    8700 6850
	1    0    0    -1  
$EndComp
$Comp
L R R4
U 1 1 5BE1A4E3
P 9200 7000
F 0 "R4" V 9280 7000 50  0000 C CNN
F 1 "22" V 9200 7000 50  0000 C CNN
F 2 "Resistors_SMD:R_1206" V 9130 7000 50  0001 C CNN
F 3 "" H 9200 7000 50  0000 C CNN
	1    9200 7000
	1    0    0    -1  
$EndComp
Text Notes 9600 8250 2    60   ~ 0
Bloc régulateur courrant 57mA
Text GLabel 9350 7500 2    60   Output ~ 0
I_reg_1
Text GLabel 11400 7000 0    60   Input ~ 0
I_reg_1
$Comp
L R R6
U 1 1 5BE1DD45
P 12450 7900
F 0 "R6" V 12530 7900 50  0000 C CNN
F 1 "6800" V 12450 7900 50  0000 C CNN
F 2 "Resistors_SMD:R_1206" V 12380 7900 50  0001 C CNN
F 3 "" H 12450 7900 50  0000 C CNN
	1    12450 7900
	-1   0    0    1   
$EndComp
Text GLabel 14350 7350 1    60   Output ~ 0
M4-
Text GLabel 14350 6650 3    60   Output ~ 0
M4+
$Comp
L D D6
U 1 1 5BE210C2
P 13600 6550
F 0 "D6" H 13600 6650 50  0000 C CNN
F 1 "SBR3U40S1F-7" H 13600 6450 50  0001 C CNN
F 2 "Diodes_SMD:SOD-123" H 13600 6550 50  0001 C CNN
F 3 "" H 13600 6550 50  0000 C CNN
	1    13600 6550
	-1   0    0    -1  
$EndComp
$Comp
L D D7
U 1 1 5BE210C8
P 14800 7450
F 0 "D7" H 14800 7550 50  0000 C CNN
F 1 "SBR3U40S1F-7" H 14800 7350 50  0001 C CNN
F 2 "Diodes_SMD:SOD-123" H 14800 7450 50  0001 C CNN
F 3 "" H 14800 7450 50  0000 C CNN
	1    14800 7450
	-1   0    0    -1  
$EndComp
$Comp
L D D8
U 1 1 5BE210CE
P 14800 6550
F 0 "D8" H 14800 6650 50  0000 C CNN
F 1 "SBR3U40S1F-7" H 14800 6450 50  0001 C CNN
F 2 "Diodes_SMD:SOD-123" H 14800 6550 50  0001 C CNN
F 3 "" H 14800 6550 50  0000 C CNN
	1    14800 6550
	-1   0    0    -1  
$EndComp
$Comp
L D D5
U 1 1 5BE210D4
P 13600 7450
F 0 "D5" H 13600 7550 50  0000 C CNN
F 1 "SBR3U40S1F-7" H 13600 7350 50  0001 C CNN
F 2 "Diodes_SMD:SOD-123" H 13600 7450 50  0001 C CNN
F 3 "" H 13600 7450 50  0000 C CNN
	1    13600 7450
	-1   0    0    -1  
$EndComp
Text GLabel 15300 7000 2    60   Input ~ 0
I_reg_2
$Comp
L Earth #PWR08
U 1 1 5BE21741
P 13350 7600
F 0 "#PWR08" H 13350 7350 50  0001 C CNN
F 1 "Earth" H 13350 7450 50  0001 C CNN
F 2 "" H 13350 7600 50  0000 C CNN
F 3 "" H 13350 7600 50  0000 C CNN
	1    13350 7600
	1    0    0    -1  
$EndComp
NoConn ~ 12750 9500
$Comp
L LM317AT U6
U 1 1 5BE23635
P 8650 8850
F 0 "U6" H 8450 9050 50  0000 C CNN
F 1 "LM338" H 8650 9050 50  0000 L CNN
F 2 "TO_SOT_Packages_THT:TO-220_Neutral123_Vertical" H 8650 8950 50  0001 C CIN
F 3 "" H 8650 8850 50  0000 C CNN
	1    8650 8850
	1    0    0    -1  
$EndComp
$Comp
L R R5
U 1 1 5BE23641
P 9150 9050
F 0 "R5" V 9230 9050 50  0000 C CNN
F 1 "22" V 9150 9050 50  0000 C CNN
F 2 "Resistors_SMD:R_1206" V 9080 9050 50  0001 C CNN
F 3 "" H 9150 9050 50  0000 C CNN
	1    9150 9050
	1    0    0    -1  
$EndComp
Text Notes 9600 10200 2    60   ~ 0
Bloc régulateur courrant 57mA
Text GLabel 9400 9500 2    60   Output ~ 0
I_reg_2
Text Notes 10950 5500 0    60   ~ 0
montage H moteur 3
Text Notes 13500 5500 0    60   ~ 0
montage H moteur 4
$Comp
L +9V #PWR09
U 1 1 5BE27E7F
P 8000 1300
F 0 "#PWR09" H 8000 1150 50  0001 C CNN
F 1 "+9V" H 8000 1440 50  0000 C CNN
F 2 "" H 8000 1300 50  0000 C CNN
F 3 "" H 8000 1300 50  0000 C CNN
	1    8000 1300
	1    0    0    -1  
$EndComp
Text Notes 8400 2450 0    60   ~ 0
Bloc régulateur 5V
$Comp
L LM317AT U9
U 1 1 5BE28DC0
P 8600 3150
F 0 "U9" H 8400 3350 50  0000 C CNN
F 1 "LM338" H 8600 3350 50  0000 L CNN
F 2 "TO_SOT_Packages_THT:TO-220_Neutral123_Vertical" H 8600 3250 50  0001 C CIN
F 3 "" H 8600 3150 50  0000 C CNN
	1    8600 3150
	1    0    0    -1  
$EndComp
$Comp
L Earth #PWR010
U 1 1 5BE28DC6
P 8600 3900
F 0 "#PWR010" H 8600 3650 50  0001 C CNN
F 1 "Earth" H 8600 3750 50  0001 C CNN
F 2 "" H 8600 3900 50  0000 C CNN
F 3 "" H 8600 3900 50  0000 C CNN
	1    8600 3900
	1    0    0    -1  
$EndComp
$Comp
L R R2
U 1 1 5BE28DD2
P 9000 3400
F 0 "R2" V 9080 3400 50  0000 C CNN
F 1 "80" V 9000 3400 50  0000 C CNN
F 2 "Resistors_SMD:R_1206" V 8930 3400 50  0001 C CNN
F 3 "" H 9000 3400 50  0000 C CNN
	1    9000 3400
	1    0    0    -1  
$EndComp
$Comp
L C C2
U 1 1 5BE28DD8
P 8100 3400
F 0 "C2" H 8125 3500 50  0000 L CNN
F 1 "0.1µF" H 8125 3300 50  0000 L CNN
F 2 "Capacitors_SMD:C_1206" H 8138 3250 50  0001 C CNN
F 3 "" H 8100 3400 50  0000 C CNN
	1    8100 3400
	1    0    0    -1  
$EndComp
$Comp
L CP CP2
U 1 1 5BE28DDE
P 9300 3400
F 0 "CP2" H 9325 3500 50  0000 L CNN
F 1 "1µF" H 9325 3300 50  0000 L CNN
F 2 "Capacitors_SMD:C_1206" H 9338 3250 50  0001 C CNN
F 3 "" H 9300 3400 50  0000 C CNN
	1    9300 3400
	1    0    0    -1  
$EndComp
$Comp
L GND #PWR011
U 1 1 5BE28DEA
P 8800 3900
F 0 "#PWR011" H 8800 3650 50  0001 C CNN
F 1 "GND" H 8800 3750 50  0000 C CNN
F 2 "" H 8800 3900 50  0000 C CNN
F 3 "" H 8800 3900 50  0000 C CNN
	1    8800 3900
	1    0    0    -1  
$EndComp
NoConn ~ 8450 3550
$Comp
L +9V #PWR012
U 1 1 5BE28E01
P 8000 3100
F 0 "#PWR012" H 8000 2950 50  0001 C CNN
F 1 "+9V" H 8000 3240 50  0000 C CNN
F 2 "" H 8000 3100 50  0000 C CNN
F 3 "" H 8000 3100 50  0000 C CNN
	1    8000 3100
	1    0    0    -1  
$EndComp
Text Notes 8400 4250 0    60   ~ 0
Bloc régulateur 6V
$Comp
L +6V #PWR013
U 1 1 5BE29678
P 9600 3100
F 0 "#PWR013" H 9600 2950 50  0001 C CNN
F 1 "+6V" H 9600 3240 50  0000 C CNN
F 2 "" H 9600 3100 50  0000 C CNN
F 3 "" H 9600 3100 50  0000 C CNN
	1    9600 3100
	1    0    0    -1  
$EndComp
$Comp
L CONN_01X06 P1
U 1 1 5BE29C90
P 1500 1400
F 0 "P1" H 1500 1750 50  0000 C CNN
F 1 "CONN_01X06" V 1600 1400 50  0000 C CNN
F 2 "Socket_Strips:Socket_Strip_Straight_1x06" H 1500 1400 50  0001 C CNN
F 3 "" H 1500 1400 50  0000 C CNN
	1    1500 1400
	1    0    0    -1  
$EndComp
Text GLabel 2800 8650 2    60   Output ~ 0
M1_1
Text GLabel 2900 9250 2    60   Output ~ 0
M1_2
Text GLabel 2800 8750 2    60   Output ~ 0
M1_3
Text GLabel 2800 8850 2    60   Output ~ 0
M1_4
Text GLabel 2900 9450 2    60   Output ~ 0
M1_5
Text GLabel 2800 8950 2    60   Output ~ 0
M1_6
Text GLabel 1100 1950 0    60   Input ~ 0
M2_1
Text GLabel 1100 2050 0    60   Input ~ 0
M2_2
Text GLabel 1100 2150 0    60   Input ~ 0
M2_3
Text GLabel 1100 2250 0    60   Input ~ 0
M2_4
Text GLabel 1100 2350 0    60   Input ~ 0
M2_5
Text GLabel 1100 2450 0    60   Input ~ 0
M2_6
$Comp
L CONN_01X06 P2
U 1 1 5BE2C3D5
P 1450 2200
F 0 "P2" H 1450 2550 50  0000 C CNN
F 1 "CONN_01X06" V 1550 2200 50  0000 C CNN
F 2 "Socket_Strips:Socket_Strip_Straight_1x06" H 1450 2200 50  0001 C CNN
F 3 "" H 1450 2200 50  0000 C CNN
	1    1450 2200
	1    0    0    -1  
$EndComp
$Comp
L CONN_01X02 P3
U 1 1 5BE2D369
P 2700 1300
F 0 "P3" H 2700 1450 50  0000 C CNN
F 1 "CONN_01X02" V 2800 1300 50  0000 C CNN
F 2 "Socket_Strips:Socket_Strip_Straight_1x02" H 2700 1300 50  0001 C CNN
F 3 "" H 2700 1300 50  0000 C CNN
	1    2700 1300
	1    0    0    -1  
$EndComp
Text GLabel 2350 1250 0    60   Input ~ 0
M3-
Text GLabel 2350 1350 0    60   Input ~ 0
M3+
$Comp
L CONN_01X02 P4
U 1 1 5BE2D8DB
P 2700 1850
F 0 "P4" H 2700 2000 50  0000 C CNN
F 1 "CONN_01X02" V 2800 1850 50  0000 C CNN
F 2 "Socket_Strips:Socket_Strip_Straight_1x02" H 2700 1850 50  0001 C CNN
F 3 "" H 2700 1850 50  0000 C CNN
	1    2700 1850
	1    0    0    -1  
$EndComp
Text GLabel 2350 1800 0    60   Input ~ 0
M4-
Text GLabel 2350 1900 0    60   Input ~ 0
M4+
Text GLabel 11300 8700 0    60   Input ~ 0
C_M3-
Text GLabel 11300 8800 0    60   Input ~ 0
C_M3+
Text GLabel 11300 8900 0    60   Input ~ 0
C_M4-
Text GLabel 11300 9300 0    60   Input ~ 0
C_M4+
Text GLabel 1050 8650 0    60   Input ~ 0
C_M1_1
Text GLabel 1050 8750 0    60   Input ~ 0
C_M1_3
Text GLabel 1050 8850 0    60   Input ~ 0
C_M1_4
Text GLabel 1050 8950 0    60   Input ~ 0
C_M1_6
Text GLabel 1050 9900 0    60   Input ~ 0
C_M2_1
Text GLabel 1050 10000 0    60   Input ~ 0
C_M2_3
Text GLabel 1050 10100 0    60   Input ~ 0
C_M2_4
Text GLabel 1050 10200 0    60   Input ~ 0
C_M2_6
Text GLabel 3100 7600 2    60   Output ~ 0
C_M1_1
Text GLabel 3100 7700 2    60   Output ~ 0
C_M1_3
Text GLabel 3100 7800 2    60   Output ~ 0
C_M1_4
Text GLabel 3100 7900 2    60   Output ~ 0
C_M1_6
Text GLabel 2000 7900 0    60   Output ~ 0
C_M2_1
Text GLabel 2000 7800 0    60   Output ~ 0
C_M2_3
Text GLabel 2000 7700 0    60   Output ~ 0
C_M2_4
Text GLabel 2000 7500 0    60   Output ~ 0
C_M2_6
Text GLabel 2000 7300 0    60   Output ~ 0
C_M3-
Text GLabel 2000 7200 0    60   Output ~ 0
C_M3+
Text GLabel 2000 7000 0    60   Output ~ 0
C_M4-
Text GLabel 2000 6800 0    60   Output ~ 0
C_M4+
$Comp
L C C4
U 1 1 5BE328A9
P 8200 7050
F 0 "C4" H 8225 7150 50  0000 L CNN
F 1 "0.1µF" H 8225 6950 50  0000 L CNN
F 2 "Capacitors_SMD:C_1206" H 8238 6900 50  0001 C CNN
F 3 "" H 8200 7050 50  0000 C CNN
	1    8200 7050
	1    0    0    -1  
$EndComp
$Comp
L C C5
U 1 1 5BE330CA
P 8200 9050
F 0 "C5" H 8225 9150 50  0000 L CNN
F 1 "0.1µF" H 8225 8950 50  0000 L CNN
F 2 "Capacitors_SMD:C_1206" H 8238 8900 50  0001 C CNN
F 3 "" H 8200 9050 50  0000 C CNN
	1    8200 9050
	1    0    0    -1  
$EndComp
$Comp
L Earth #PWR014
U 1 1 5BE336A5
P 8200 7400
F 0 "#PWR014" H 8200 7150 50  0001 C CNN
F 1 "Earth" H 8200 7250 50  0001 C CNN
F 2 "" H 8200 7400 50  0000 C CNN
F 3 "" H 8200 7400 50  0000 C CNN
	1    8200 7400
	1    0    0    -1  
$EndComp
$Comp
L Earth #PWR015
U 1 1 5BE33CF3
P 8200 9500
F 0 "#PWR015" H 8200 9250 50  0001 C CNN
F 1 "Earth" H 8200 9350 50  0001 C CNN
F 2 "" H 8200 9500 50  0000 C CNN
F 3 "" H 8200 9500 50  0000 C CNN
	1    8200 9500
	1    0    0    -1  
$EndComp
Text GLabel 12550 2550 1    60   Output ~ 0
M5_B1-
Text GLabel 12450 1900 3    60   Output ~ 0
M5_B1+
$Comp
L D D12
U 1 1 5BE3A6F2
P 13200 1750
F 0 "D12" H 13200 1850 50  0000 C CNN
F 1 "SBR3U40S1F-7" H 13200 1650 50  0001 C CNN
F 2 "Diodes_SMD:SOD-123" H 13200 1750 50  0001 C CNN
F 3 "" H 13200 1750 50  0000 C CNN
	1    13200 1750
	1    0    0    -1  
$EndComp
$Comp
L D D10
U 1 1 5BE3A6F8
P 12000 2650
F 0 "D10" H 12000 2750 50  0000 C CNN
F 1 "SBR3U40S1F-7" H 12000 2550 50  0001 C CNN
F 2 "Diodes_SMD:SOD-123" H 12000 2650 50  0001 C CNN
F 3 "" H 12000 2650 50  0000 C CNN
	1    12000 2650
	1    0    0    -1  
$EndComp
$Comp
L D D11
U 1 1 5BE3A6FE
P 12000 1750
F 0 "D11" H 12000 1850 50  0000 C CNN
F 1 "SBR3U40S1F-7" H 12000 1650 50  0001 C CNN
F 2 "Diodes_SMD:SOD-123" H 12000 1750 50  0001 C CNN
F 3 "" H 12000 1750 50  0000 C CNN
	1    12000 1750
	1    0    0    -1  
$EndComp
$Comp
L D D9
U 1 1 5BE3A704
P 13200 2650
F 0 "D9" H 13200 2750 50  0000 C CNN
F 1 "SBR3U40S1F-7" H 13200 2550 50  0001 C CNN
F 2 "Diodes_SMD:SOD-123" H 13200 2650 50  0001 C CNN
F 3 "" H 13200 2650 50  0000 C CNN
	1    13200 2650
	1    0    0    -1  
$EndComp
Text GLabel 14350 2350 1    60   Output ~ 0
M5_B2-
Text GLabel 14450 1900 3    60   Output ~ 0
M5_B2+
$Comp
L D D16
U 1 1 5BE3A71F
P 13700 1750
F 0 "D16" H 13700 1850 50  0000 C CNN
F 1 "SBR3U40S1F-7" H 13700 1650 50  0001 C CNN
F 2 "Diodes_SMD:SOD-123" H 13700 1750 50  0001 C CNN
F 3 "" H 13700 1750 50  0000 C CNN
	1    13700 1750
	-1   0    0    -1  
$EndComp
$Comp
L D D14
U 1 1 5BE3A725
P 14900 2650
F 0 "D14" H 14900 2750 50  0000 C CNN
F 1 "SBR3U40S1F-7" H 14900 2550 50  0001 C CNN
F 2 "Diodes_SMD:SOD-123" H 14900 2650 50  0001 C CNN
F 3 "" H 14900 2650 50  0000 C CNN
	1    14900 2650
	-1   0    0    -1  
$EndComp
$Comp
L D D15
U 1 1 5BE3A72B
P 14900 1750
F 0 "D15" H 14900 1850 50  0000 C CNN
F 1 "SBR3U40S1F-7" H 14900 1650 50  0001 C CNN
F 2 "Diodes_SMD:SOD-123" H 14900 1750 50  0001 C CNN
F 3 "" H 14900 1750 50  0000 C CNN
	1    14900 1750
	-1   0    0    -1  
$EndComp
$Comp
L D D13
U 1 1 5BE3A731
P 13700 2650
F 0 "D13" H 13700 2750 50  0000 C CNN
F 1 "SBR3U40S1F-7" H 13700 2550 50  0001 C CNN
F 2 "Diodes_SMD:SOD-123" H 13700 2650 50  0001 C CNN
F 3 "" H 13700 2650 50  0000 C CNN
	1    13700 2650
	-1   0    0    -1  
$EndComp
$Comp
L Earth #PWR016
U 1 1 5BE3A744
P 13450 2800
F 0 "#PWR016" H 13450 2550 50  0001 C CNN
F 1 "Earth" H 13450 2650 50  0001 C CNN
F 2 "" H 13450 2800 50  0000 C CNN
F 3 "" H 13450 2800 50  0000 C CNN
	1    13450 2800
	1    0    0    -1  
$EndComp
Text Notes 11050 700  0    60   ~ 0
montage H bobine 1
Text Notes 13600 700  0    60   ~ 0
montage H bobine 2
Text GLabel 11250 4550 0    60   Input ~ 0
C_M5_B1+
Text GLabel 13000 4950 0    60   Input ~ 0
I_M5_B1-
Text GLabel 11450 4100 0    60   Input ~ 0
C_M5_B2-
Text GLabel 11300 9100 0    60   Input ~ 0
C_M5_B1-
$Comp
L ULN2003A U11
U 1 1 5BE3A6EC
P 12200 4300
F 0 "U11" H 12200 4400 50  0000 C CNN
F 1 "ULN2003A" H 12200 4200 50  0000 C CNN
F 2 "Housings_SOIC:SOIC-16_3.9x9.9mm_Pitch1.27mm" H 12200 4300 50  0001 C CNN
F 3 "" H 12200 4300 50  0000 C CNN
	1    12200 4300
	1    0    0    -1  
$EndComp
NoConn ~ 12850 4700
$Comp
L +6V #PWR017
U 1 1 5BE4219B
P 11500 2200
F 0 "#PWR017" H 11500 2050 50  0001 C CNN
F 1 "+6V" H 11500 2340 50  0000 C CNN
F 2 "" H 11500 2200 50  0000 C CNN
F 3 "" H 11500 2200 50  0000 C CNN
	1    11500 2200
	1    0    0    -1  
$EndComp
$Comp
L +6V #PWR018
U 1 1 5BE42229
P 15400 2200
F 0 "#PWR018" H 15400 2050 50  0001 C CNN
F 1 "+6V" H 15400 2340 50  0000 C CNN
F 2 "" H 15400 2200 50  0000 C CNN
F 3 "" H 15400 2200 50  0000 C CNN
	1    15400 2200
	1    0    0    -1  
$EndComp
Text GLabel 12950 9200 2    60   Output ~ 0
I_M5_B1-
Text GLabel 11450 3900 0    60   Input ~ 0
C_M5_B2+
Text GLabel 2000 6900 0    60   Output ~ 0
C_M5_B1-
Text GLabel 2000 6500 0    60   Output ~ 0
C_M5_B1+
Text GLabel 2000 6600 0    60   Output ~ 0
C_M5_B2-
Text GLabel 2000 6700 0    60   Output ~ 0
C_M5_B2+
$Comp
L R R8
U 1 1 5BE56149
P 14250 7900
F 0 "R8" V 14330 7900 50  0000 C CNN
F 1 "6800" V 14250 7900 50  0000 C CNN
F 2 "Resistors_SMD:R_1206" V 14180 7900 50  0001 C CNN
F 3 "" H 14250 7900 50  0000 C CNN
	1    14250 7900
	-1   0    0    1   
$EndComp
$Comp
L R R7
U 1 1 5BE563EA
P 12250 6150
F 0 "R7" V 12330 6150 50  0000 C CNN
F 1 "6800" V 12250 6150 50  0000 C CNN
F 2 "Resistors_SMD:R_1206" V 12180 6150 50  0001 C CNN
F 3 "" H 12250 6150 50  0000 C CNN
	1    12250 6150
	-1   0    0    1   
$EndComp
$Comp
L R R10
U 1 1 5BE5657C
P 14450 6150
F 0 "R10" V 14530 6150 50  0000 C CNN
F 1 "6800" V 14450 6150 50  0000 C CNN
F 2 "Resistors_SMD:R_1206" V 14380 6150 50  0001 C CNN
F 3 "" H 14450 6150 50  0000 C CNN
	1    14450 6150
	-1   0    0    1   
$EndComp
$Comp
L R R11
U 1 1 5BE56973
P 12650 3100
F 0 "R11" V 12730 3100 50  0000 C CNN
F 1 "6800" V 12650 3100 50  0000 C CNN
F 2 "Resistors_SMD:R_1206" V 12580 3100 50  0001 C CNN
F 3 "" H 12650 3100 50  0000 C CNN
	1    12650 3100
	-1   0    0    1   
$EndComp
$Comp
L R R13
U 1 1 5BE56A55
P 14250 3100
F 0 "R13" V 14330 3100 50  0000 C CNN
F 1 "6800" V 14250 3100 50  0000 C CNN
F 2 "Resistors_SMD:R_1206" V 14180 3100 50  0001 C CNN
F 3 "" H 14250 3100 50  0000 C CNN
	1    14250 3100
	-1   0    0    1   
$EndComp
$Comp
L R R14
U 1 1 5BE56CD6
P 14550 1350
F 0 "R14" V 14630 1350 50  0000 C CNN
F 1 "6800" V 14550 1350 50  0000 C CNN
F 2 "Resistors_SMD:R_1206" V 14480 1350 50  0001 C CNN
F 3 "" H 14550 1350 50  0000 C CNN
	1    14550 1350
	-1   0    0    1   
$EndComp
$Comp
L R R12
U 1 1 5BE56DCA
P 12350 1350
F 0 "R12" V 12430 1350 50  0000 C CNN
F 1 "6800" V 12350 1350 50  0000 C CNN
F 2 "Resistors_SMD:R_1206" V 12280 1350 50  0001 C CNN
F 3 "" H 12350 1350 50  0000 C CNN
	1    12350 1350
	-1   0    0    1   
$EndComp
$Comp
L POT Pot2
U 1 1 5BE60413
P 8450 3700
F 0 "Pot2" V 8275 3700 50  0000 C CNN
F 1 "1000" V 8350 3700 50  0000 C CNN
F 2 "Potentiometers:Potentiometer_VishaySpectrol-Econtrim-Type36k" H 8450 3700 50  0001 C CNN
F 3 "T73YE102KT20" H 8450 3700 50  0001 C CNN
	1    8450 3700
	1    0    0    -1  
$EndComp
NoConn ~ 8450 3550
$Comp
L CONN_02X08 P5
U 1 1 5BE69BF1
P 2700 5800
F 0 "P5" H 2700 6250 50  0000 C CNN
F 1 "CONN_02X08" V 2700 5800 50  0000 C CNN
F 2 "Socket_Strips:Socket_Strip_Straight_2x08" H 2700 4600 50  0001 C CNN
F 3 "" H 2700 4600 50  0000 C CNN
	1    2700 5800
	1    0    0    -1  
$EndComp
$Comp
L GND #PWR019
U 1 1 5BE6A336
P 2200 5950
F 0 "#PWR019" H 2200 5700 50  0001 C CNN
F 1 "GND" H 2200 5800 50  0000 C CNN
F 2 "" H 2200 5950 50  0000 C CNN
F 3 "" H 2200 5950 50  0000 C CNN
	1    2200 5950
	1    0    0    -1  
$EndComp
$Comp
L CONN_02X10 P7
U 1 1 5BE6B7AF
P 5050 5600
F 0 "P7" H 5050 6150 50  0000 C CNN
F 1 "CONN_02X10" V 5050 5600 50  0000 C CNN
F 2 "Socket_Strips:Socket_Strip_Straight_2x10" H 5050 4400 50  0001 C CNN
F 3 "" H 5050 4400 50  0000 C CNN
	1    5050 5600
	1    0    0    -1  
$EndComp
$Comp
L CONN_02X17 P8
U 1 1 5BE6B894
P 5050 7100
F 0 "P8" H 5050 8000 50  0000 C CNN
F 1 "CONN_02X17" V 5050 7100 50  0000 C CNN
F 2 "Socket_Strips:Socket_Strip_Straight_2x17" H 5050 6000 50  0001 C CNN
F 3 "" H 5050 6000 50  0000 C CNN
	1    5050 7100
	1    0    0    -1  
$EndComp
$Comp
L +9V #PWR020
U 1 1 5BE722E7
P 1950 6150
F 0 "#PWR020" H 1950 6000 50  0001 C CNN
F 1 "+9V" H 1950 6290 50  0000 C CNN
F 2 "" H 1950 6150 50  0000 C CNN
F 3 "" H 1950 6150 50  0000 C CNN
	1    1950 6150
	1    0    0    -1  
$EndComp
NoConn ~ 2450 5850
NoConn ~ 2450 5650
NoConn ~ 2450 5550
NoConn ~ 2450 5450
$Comp
L GND #PWR021
U 1 1 5BE7330F
P 3300 7000
F 0 "#PWR021" H 3300 6750 50  0001 C CNN
F 1 "GND" H 3300 6850 50  0000 C CNN
F 2 "" H 3300 7000 50  0000 C CNN
F 3 "" H 3300 7000 50  0000 C CNN
	1    3300 7000
	1    0    0    -1  
$EndComp
$Comp
L GND #PWR022
U 1 1 5BE733A5
P 2100 7600
F 0 "#PWR022" H 2100 7350 50  0001 C CNN
F 1 "GND" H 2100 7450 50  0000 C CNN
F 2 "" H 2100 7600 50  0000 C CNN
F 3 "" H 2100 7600 50  0000 C CNN
	1    2100 7600
	1    0    0    -1  
$EndComp
$Comp
L GND #PWR023
U 1 1 5BE7390F
P 5600 5450
F 0 "#PWR023" H 5600 5200 50  0001 C CNN
F 1 "GND" H 5600 5300 50  0000 C CNN
F 2 "" H 5600 5450 50  0000 C CNN
F 3 "" H 5600 5450 50  0000 C CNN
	1    5600 5450
	1    0    0    -1  
$EndComp
$Comp
L GND #PWR024
U 1 1 5BE73CB3
P 5600 7300
F 0 "#PWR024" H 5600 7050 50  0001 C CNN
F 1 "GND" H 5600 7150 50  0000 C CNN
F 2 "" H 5600 7300 50  0000 C CNN
F 3 "" H 5600 7300 50  0000 C CNN
	1    5600 7300
	1    0    0    -1  
$EndComp
$Comp
L GND #PWR025
U 1 1 5BE740DA
P 4400 7600
F 0 "#PWR025" H 4400 7350 50  0001 C CNN
F 1 "GND" H 4400 7450 50  0000 C CNN
F 2 "" H 4400 7600 50  0000 C CNN
F 3 "" H 4400 7600 50  0000 C CNN
	1    4400 7600
	1    0    0    -1  
$EndComp
$Comp
L GND #PWR026
U 1 1 5BE74170
P 4400 7100
F 0 "#PWR026" H 4400 6850 50  0001 C CNN
F 1 "GND" H 4400 6950 50  0000 C CNN
F 2 "" H 4400 7100 50  0000 C CNN
F 3 "" H 4400 7100 50  0000 C CNN
	1    4400 7100
	1    0    0    -1  
$EndComp
$Comp
L +9V #PWR027
U 1 1 5BE7760D
P 5000 1300
F 0 "#PWR027" H 5000 1150 50  0001 C CNN
F 1 "+9V" H 5000 1440 50  0000 C CNN
F 2 "" H 5000 1300 50  0000 C CNN
F 3 "" H 5000 1300 50  0000 C CNN
	1    5000 1300
	1    0    0    -1  
$EndComp
$Comp
L Q_PNP_ECB Q2
U 1 1 5C1B8B3C
P 11900 5750
F 0 "Q2" H 12100 5800 50  0000 L CNN
F 1 "SB772" H 12100 5700 50  0001 L CNN
F 2 "TO_SOT_Packages_THT:SOT126_SOT32_Housing_Vertical" H 12100 5850 50  0001 C CNN
F 3 "" H 11900 5750 50  0000 C CNN
	1    11900 5750
	0    1    1    0   
$EndComp
$Comp
L Q_PNP_ECB Q4
U 1 1 5C1B8C7E
P 14800 5750
F 0 "Q4" H 15000 5800 50  0000 L CNN
F 1 "SB772" H 15000 5700 50  0001 L CNN
F 2 "TO_SOT_Packages_THT:SOT126_SOT32_Housing_Vertical" H 15000 5850 50  0001 C CNN
F 3 "" H 14800 5750 50  0000 C CNN
	1    14800 5750
	0    -1   1    0   
$EndComp
$Comp
L Q_PNP_ECB Q8
U 1 1 5C1B8F4E
P 14900 950
F 0 "Q8" H 15100 1000 50  0000 L CNN
F 1 "SB772" H 15100 900 50  0001 L CNN
F 2 "TO_SOT_Packages_THT:SOT126_SOT32_Housing_Vertical" H 15100 1050 50  0001 C CNN
F 3 "" H 14900 950 50  0000 C CNN
	1    14900 950 
	0    -1   1    0   
$EndComp
$Comp
L Q_PNP_ECB Q6
U 1 1 5C1B90D6
P 12000 950
F 0 "Q6" H 12200 1000 50  0000 L CNN
F 1 "SB772" H 12200 900 50  0001 L CNN
F 2 "TO_SOT_Packages_THT:SOT126_SOT32_Housing_Vertical" H 12200 1050 50  0001 C CNN
F 3 "" H 12000 950 50  0000 C CNN
	1    12000 950 
	0    1    1    0   
$EndComp
$Comp
L Q_PNP_ECB Q5
U 1 1 5C1B93CA
P 12000 3500
F 0 "Q5" H 12200 3550 50  0000 L CNN
F 1 "SB772" H 12200 3450 50  0001 L CNN
F 2 "TO_SOT_Packages_THT:SOT126_SOT32_Housing_Vertical" H 12200 3600 50  0001 C CNN
F 3 "" H 12000 3500 50  0000 C CNN
	1    12000 3500
	0    1    -1   0   
$EndComp
$Comp
L Q_PNP_ECB Q7
U 1 1 5C1B95B2
P 14900 3500
F 0 "Q7" H 15100 3550 50  0000 L CNN
F 1 "SB772" H 15100 3450 50  0001 L CNN
F 2 "TO_SOT_Packages_THT:SOT126_SOT32_Housing_Vertical" H 15100 3600 50  0001 C CNN
F 3 "" H 14900 3500 50  0000 C CNN
	1    14900 3500
	0    -1   -1   0   
$EndComp
$Comp
L Q_PNP_ECB Q3
U 1 1 5C1B9701
P 14800 8300
F 0 "Q3" H 15000 8350 50  0000 L CNN
F 1 "SB772" H 15000 8250 50  0001 L CNN
F 2 "TO_SOT_Packages_THT:SOT126_SOT32_Housing_Vertical" H 15000 8400 50  0001 C CNN
F 3 "" H 14800 8300 50  0000 C CNN
	1    14800 8300
	0    -1   -1   0   
$EndComp
$Comp
L Q_PNP_ECB Q1
U 1 1 5C1B9861
P 11900 8300
F 0 "Q1" H 12100 8350 50  0000 L CNN
F 1 "SB772" H 12100 8250 50  0001 L CNN
F 2 "TO_SOT_Packages_THT:SOT126_SOT32_Housing_Vertical" H 12100 8400 50  0001 C CNN
F 3 "" H 11900 8300 50  0000 C CNN
	1    11900 8300
	0    1    -1   0   
$EndComp
$Comp
L CONN_01X06 P10
U 1 1 5C6AAF3A
P 2700 2500
F 0 "P10" H 2700 2850 50  0000 C CNN
F 1 "CONN_01X06" V 2800 2500 50  0000 C CNN
F 2 "Socket_Strips:Socket_Strip_Straight_1x06" H 2700 2500 50  0001 C CNN
F 3 "" H 2700 2500 50  0000 C CNN
	1    2700 2500
	1    0    0    -1  
$EndComp
Text GLabel 2200 2450 0    60   Input ~ 0
M5_B1+
Text GLabel 2200 2550 0    60   Input ~ 0
M5_B1-
Text GLabel 2200 2250 0    60   Input ~ 0
M5_B2+
Text GLabel 2200 2350 0    60   Input ~ 0
M5_B2-
$Comp
L CONN_01X02 P9
U 1 1 5C6BBA0D
P 5200 2350
F 0 "P9" H 5200 2500 50  0000 C CNN
F 1 "CONN_01X02" V 5300 2350 50  0000 C CNN
F 2 "Socket_Strips:Socket_Strip_Straight_1x02" H 5200 2350 50  0001 C CNN
F 3 "" H 5200 2350 50  0000 C CNN
	1    5200 2350
	1    0    0    -1  
$EndComp
Text GLabel 4850 2400 0    60   Input ~ 0
interrupteur
Text GLabel 3100 5450 2    60   Output ~ 0
interrupteur
$Comp
L GND #PWR028
U 1 1 5C6BEA6B
P 4650 1950
F 0 "#PWR028" H 4650 1700 50  0001 C CNN
F 1 "GND" H 4650 1800 50  0000 C CNN
F 2 "" H 4650 1950 50  0000 C CNN
F 3 "" H 4650 1950 50  0000 C CNN
	1    4650 1950
	1    0    0    -1  
$EndComp
$Comp
L +12V #PWR029
U 1 1 5C6BF388
P 4800 1350
F 0 "#PWR029" H 4800 1200 50  0001 C CNN
F 1 "+12V" H 4800 1490 50  0000 C CNN
F 2 "" H 4800 1350 50  0000 C CNN
F 3 "" H 4800 1350 50  0000 C CNN
	1    4800 1350
	1    0    0    -1  
$EndComp
$Comp
L GND #PWR030
U 1 1 5C6BFA16
P 5100 1200
F 0 "#PWR030" H 5100 950 50  0001 C CNN
F 1 "GND" H 5100 1050 50  0000 C CNN
F 2 "" H 5100 1200 50  0000 C CNN
F 3 "" H 5100 1200 50  0000 C CNN
	1    5100 1200
	-1   0    0    1   
$EndComp
Text GLabel 4900 1050 0    60   Output ~ 0
elevateur
$Comp
L CONN_01X04 P12
U 1 1 5C6C0B12
P 4950 1600
F 0 "P12" H 4950 1850 50  0000 C CNN
F 1 "CONN_01X04" V 5050 1600 50  0000 C CNN
F 2 "Socket_Strips:Socket_Strip_Straight_1x04" H 4950 1600 50  0001 C CNN
F 3 "" H 4950 1600 50  0000 C CNN
	1    4950 1600
	0    1    1    0   
$EndComp
Text Notes 3250 4850 0    60   ~ 0
Ports du µC
Text Notes 1350 800  0    60   ~ 0
Ports de sortie
$Comp
L CONN_01X02 P11
U 1 1 5C6C5522
P 1500 2850
F 0 "P11" H 1500 3000 50  0000 C CNN
F 1 "CONN_01X02" V 1600 2850 50  0000 C CNN
F 2 "Socket_Strips:Socket_Strip_Straight_1x02" H 1500 2850 50  0001 C CNN
F 3 "" H 1500 2850 50  0000 C CNN
	1    1500 2850
	1    0    0    -1  
$EndComp
Text GLabel 1150 2900 0    60   Input ~ 0
shutter
$Comp
L +12V #PWR031
U 1 1 5C6C5D71
P 1250 2800
F 0 "#PWR031" H 1250 2650 50  0001 C CNN
F 1 "+12V" H 1250 2940 50  0000 C CNN
F 2 "" H 1250 2800 50  0000 C CNN
F 3 "" H 1250 2800 50  0000 C CNN
	1    1250 2800
	1    0    0    -1  
$EndComp
Text GLabel 3100 5550 2    60   Output ~ 0
C_shutter
NoConn ~ 2450 5750
$Comp
L ULN2003A U5
U 1 1 5C6C828B
P 5900 9650
F 0 "U5" H 5900 9750 50  0000 C CNN
F 1 "ULN2003A" H 5900 9550 50  0000 C CNN
F 2 "Housings_SOIC:SOIC-16_3.9x9.9mm_Pitch1.27mm" H 5900 9650 50  0001 C CNN
F 3 "" H 5900 9650 50  0000 C CNN
	1    5900 9650
	1    0    0    -1  
$EndComp
$Comp
L +12V #PWR032
U 1 1 5C6C9497
P 6700 10050
F 0 "#PWR032" H 6700 9900 50  0001 C CNN
F 1 "+12V" H 6700 10190 50  0000 C CNN
F 2 "" H 6700 10050 50  0000 C CNN
F 3 "" H 6700 10050 50  0000 C CNN
	1    6700 10050
	1    0    0    -1  
$EndComp
$Comp
L GND #PWR033
U 1 1 5C6CC560
P 5100 9750
F 0 "#PWR033" H 5100 9500 50  0001 C CNN
F 1 "GND" H 5100 9600 50  0000 C CNN
F 2 "" H 5100 9750 50  0000 C CNN
F 3 "" H 5100 9750 50  0000 C CNN
	1    5100 9750
	1    0    0    -1  
$EndComp
NoConn ~ 6550 9850
NoConn ~ 6550 9750
NoConn ~ 6550 9650
Text GLabel 5150 9450 0    60   Input ~ 0
C_shutter
Text GLabel 6650 9450 2    60   Output ~ 0
shutter
Text Notes 5550 9050 0    60   ~ 0
Shutter 12V 0.8A
Text Notes 4550 850  0    60   ~ 0
Ports d entree
NoConn ~ 2450 7100
NoConn ~ 2950 7500
NoConn ~ 2950 7300
NoConn ~ 2950 7200
NoConn ~ 2950 7100
NoConn ~ 2950 6900
NoConn ~ 2950 6800
NoConn ~ 2950 6700
NoConn ~ 2950 6600
NoConn ~ 2950 6500
NoConn ~ 2950 5650
NoConn ~ 2950 5750
NoConn ~ 2950 5850
NoConn ~ 2950 6150
NoConn ~ 2500 2650
NoConn ~ 2500 2750
NoConn ~ 4900 1050
NoConn ~ 4800 7900
NoConn ~ 4800 7800
NoConn ~ 4800 7700
NoConn ~ 4800 7500
NoConn ~ 4800 7400
NoConn ~ 4800 7300
NoConn ~ 4800 7200
NoConn ~ 5300 7200
NoConn ~ 5300 7400
NoConn ~ 5300 7500
NoConn ~ 5300 7600
NoConn ~ 5300 7700
NoConn ~ 5300 7800
NoConn ~ 5300 7900
NoConn ~ 5300 7100
NoConn ~ 5300 7000
NoConn ~ 5300 6900
NoConn ~ 5300 6800
NoConn ~ 5300 6700
NoConn ~ 5300 6600
NoConn ~ 5300 6500
NoConn ~ 5300 6400
NoConn ~ 5300 6300
NoConn ~ 4800 6300
NoConn ~ 4800 6400
NoConn ~ 4800 6500
NoConn ~ 4800 6600
NoConn ~ 4800 6700
NoConn ~ 4800 6800
NoConn ~ 4800 6900
NoConn ~ 4800 7000
NoConn ~ 5300 6050
NoConn ~ 5300 5950
NoConn ~ 5300 5850
NoConn ~ 5300 5750
NoConn ~ 5300 5650
NoConn ~ 5300 5550
NoConn ~ 5300 5350
NoConn ~ 5300 5250
NoConn ~ 5300 5150
NoConn ~ 4800 5150
NoConn ~ 4800 5250
NoConn ~ 4800 5350
NoConn ~ 4800 5450
NoConn ~ 4800 5550
NoConn ~ 4800 5650
NoConn ~ 4800 5750
NoConn ~ 4800 5850
NoConn ~ 4800 5950
NoConn ~ 4800 6050
$Comp
L +9V #PWR034
U 1 1 5C6D5BBB
P 7200 8200
F 0 "#PWR034" H 7200 8050 50  0001 C CNN
F 1 "+9V" H 7200 8340 50  0000 C CNN
F 2 "" H 7200 8200 50  0000 C CNN
F 3 "" H 7200 8200 50  0000 C CNN
	1    7200 8200
	1    0    0    -1  
$EndComp
$Comp
L GND #PWR035
U 1 1 5C6D6BAB
P 3100 6000
F 0 "#PWR035" H 3100 5750 50  0001 C CNN
F 1 "GND" H 3100 5850 50  0000 C CNN
F 2 "" H 3100 6000 50  0000 C CNN
F 3 "" H 3100 6000 50  0000 C CNN
	1    3100 6000
	1    0    0    -1  
$EndComp
$Comp
L CONN_02X15 P6
U 1 1 5BE6B055
P 2700 7200
F 0 "P6" H 2700 8000 50  0000 C CNN
F 1 "CONN_02X15" V 2700 7200 50  0000 C CNN
F 2 "Socket_Strips:Socket_Strip_Straight_2x15" H 2700 6050 50  0001 C CNN
F 3 "" H 2700 6050 50  0000 C CNN
	1    2700 7200
	1    0    0    -1  
$EndComp
$Comp
L GND #PWR036
U 1 1 5C6D7F26
P 1550 7400
F 0 "#PWR036" H 1550 7150 50  0001 C CNN
F 1 "GND" H 1550 7250 50  0000 C CNN
F 2 "" H 1550 7400 50  0000 C CNN
F 3 "" H 1550 7400 50  0000 C CNN
	1    1550 7400
	1    0    0    -1  
$EndComp
Wire Wire Line
	8000 1300 8200 1300
Wire Wire Line
	8100 1300 8100 1450
Wire Wire Line
	8100 1750 8100 2100
Wire Wire Line
	8100 2100 9300 2100
Wire Wire Line
	9300 2100 9300 1750
Connection ~ 8600 2100
Wire Wire Line
	9300 1450 9300 1300
Wire Wire Line
	9000 1300 9600 1300
Wire Wire Line
	9000 1300 9000 1450
Connection ~ 9300 1300
Wire Wire Line
	2800 8650 2600 8650
Wire Wire Line
	2600 8750 2800 8750
Wire Wire Line
	2800 8850 2600 8850
Wire Wire Line
	2600 8950 2800 8950
Wire Wire Line
	2800 9200 2800 9450
Connection ~ 2800 9450
Connection ~ 2800 9250
Wire Wire Line
	9000 1750 9000 1900
Wire Wire Line
	9000 1900 8600 1900
Wire Wire Line
	8600 1900 8600 1600
Wire Wire Line
	8450 2050 8450 2100
Connection ~ 8450 2100
Wire Wire Line
	1300 9050 1250 9050
Wire Wire Line
	1250 9050 1250 9350
Wire Wire Line
	1300 9150 1250 9150
Connection ~ 1250 9150
Wire Wire Line
	1300 9250 1250 9250
Connection ~ 1250 9250
Wire Wire Line
	2800 9900 2600 9900
Wire Wire Line
	2600 10000 2800 10000
Wire Wire Line
	2800 10100 2600 10100
Wire Wire Line
	2600 10200 2800 10200
Wire Wire Line
	2800 10450 2800 10700
Wire Wire Line
	2600 10700 2900 10700
Connection ~ 2800 10700
Wire Wire Line
	2900 10500 2800 10500
Connection ~ 2800 10500
Wire Wire Line
	1300 10300 1250 10300
Wire Wire Line
	1250 10300 1250 10600
Wire Wire Line
	1300 10400 1250 10400
Connection ~ 1250 10400
Wire Wire Line
	1300 10500 1250 10500
Connection ~ 1250 10500
Connection ~ 8800 2100
Wire Notes Line
	7800 6550 9950 6550
Wire Notes Line
	9950 6550 9950 8300
Wire Notes Line
	9950 8300 7800 8300
Wire Notes Line
	7800 8300 7800 6550
Wire Wire Line
	9100 6800 9200 6800
Wire Wire Line
	9200 6800 9200 6850
Wire Wire Line
	12350 6550 12350 6650
Connection ~ 12350 6550
Wire Wire Line
	12350 7450 12350 7350
Connection ~ 12350 7450
Wire Wire Line
	11700 7450 11750 7450
Wire Wire Line
	11700 5850 11700 8200
Wire Wire Line
	11700 7000 11400 7000
Wire Wire Line
	11700 6550 11750 6550
Connection ~ 11700 7000
Connection ~ 11700 6550
Wire Wire Line
	12100 5850 12100 6550
Connection ~ 12100 6550
Connection ~ 11700 7450
Wire Wire Line
	12100 8200 12100 7450
Connection ~ 12100 7450
Wire Wire Line
	11900 5550 12250 5550
Wire Wire Line
	12250 5550 12250 6000
Wire Wire Line
	12250 7450 12250 6300
Connection ~ 12250 7450
Wire Wire Line
	11900 8500 12450 8500
Wire Wire Line
	12450 8500 12450 8050
Wire Wire Line
	12450 6550 12450 7750
Connection ~ 12450 6550
Wire Wire Line
	12050 6550 12950 6550
Wire Wire Line
	12050 7450 12950 7450
Wire Wire Line
	14350 6550 14350 6650
Connection ~ 14350 6550
Wire Wire Line
	14350 7450 14350 7350
Connection ~ 14350 7450
Wire Wire Line
	15000 7450 14950 7450
Wire Wire Line
	15000 5850 15000 8200
Wire Wire Line
	15000 7000 15300 7000
Wire Wire Line
	15000 6550 14950 6550
Connection ~ 15000 7000
Connection ~ 15000 6550
Wire Wire Line
	14600 6550 14600 5850
Connection ~ 14600 6550
Connection ~ 15000 7450
Wire Wire Line
	14600 7450 14600 8200
Connection ~ 14600 7450
Wire Wire Line
	14800 5550 14450 5550
Wire Wire Line
	14450 5550 14450 6000
Wire Wire Line
	14450 7450 14450 6300
Connection ~ 14450 7450
Wire Wire Line
	14800 8500 14250 8500
Wire Wire Line
	14250 8500 14250 8050
Wire Wire Line
	14250 6550 14250 7750
Connection ~ 14250 6550
Wire Wire Line
	13750 6550 14650 6550
Wire Wire Line
	13750 7450 14650 7450
Wire Wire Line
	13250 7450 13450 7450
Wire Wire Line
	13250 6550 13450 6550
Wire Wire Line
	13350 6550 13350 7600
Connection ~ 13350 7450
Connection ~ 13350 6550
Wire Wire Line
	12750 8700 12750 7450
Connection ~ 12750 7450
Wire Wire Line
	12750 8800 12850 8800
Wire Wire Line
	12850 8800 12850 6550
Connection ~ 12850 6550
Wire Wire Line
	12750 8900 13850 8900
Wire Wire Line
	13850 8900 13850 7450
Connection ~ 13850 7450
Wire Wire Line
	13950 6550 13950 9300
Connection ~ 13950 6550
Wire Notes Line
	7800 8500 9950 8500
Wire Notes Line
	9950 8500 9950 10250
Wire Notes Line
	9950 10250 7800 10250
Wire Notes Line
	7800 10250 7800 8500
Wire Notes Line
	13250 5400 13250 8550
Wire Notes Line
	13250 8550 10900 8550
Wire Notes Line
	10900 8550 10900 5400
Wire Notes Line
	10900 5400 13250 5400
Wire Notes Line
	13450 5400 13450 8550
Wire Notes Line
	13450 8550 15800 8550
Wire Notes Line
	15800 8550 15800 5400
Wire Notes Line
	15800 5400 13450 5400
Wire Wire Line
	7200 8400 7600 8400
Connection ~ 7600 8400
Connection ~ 8100 1300
Wire Notes Line
	7750 900  9850 900 
Wire Notes Line
	9850 900  9850 2500
Wire Notes Line
	9850 2500 7750 2500
Wire Notes Line
	7750 2500 7750 900 
Wire Wire Line
	8000 3100 8200 3100
Wire Wire Line
	8100 3100 8100 3250
Wire Wire Line
	8100 3550 8100 3900
Wire Wire Line
	8100 3900 9300 3900
Wire Wire Line
	9300 3900 9300 3550
Connection ~ 8600 3900
Wire Wire Line
	9300 3250 9300 3100
Wire Wire Line
	9000 3100 9600 3100
Wire Wire Line
	9000 3100 9000 3250
Connection ~ 9300 3100
Wire Wire Line
	9000 3550 9000 3700
Wire Wire Line
	9000 3700 8600 3700
Wire Wire Line
	8600 3700 8600 3400
Wire Wire Line
	8450 3850 8450 3900
Connection ~ 8450 3900
Connection ~ 8800 3900
Connection ~ 8100 3100
Wire Notes Line
	7750 2700 9850 2700
Wire Notes Line
	9850 2700 9850 4300
Wire Notes Line
	9850 4300 7750 4300
Wire Notes Line
	7750 4300 7750 2700
Wire Wire Line
	1300 1150 1100 1150
Wire Wire Line
	1300 1250 1100 1250
Wire Wire Line
	1300 1350 1100 1350
Wire Wire Line
	1300 1450 1100 1450
Wire Wire Line
	1300 1550 1100 1550
Wire Wire Line
	1300 1650 1100 1650
Wire Wire Line
	2900 9250 2800 9250
Wire Wire Line
	2600 9450 2900 9450
Wire Wire Line
	1250 1950 1100 1950
Wire Wire Line
	1250 2050 1100 2050
Wire Wire Line
	1250 2150 1100 2150
Wire Wire Line
	1250 2250 1100 2250
Wire Wire Line
	1250 2350 1100 2350
Wire Wire Line
	1250 2450 1100 2450
Wire Wire Line
	2350 1250 2500 1250
Wire Wire Line
	2500 1350 2350 1350
Wire Wire Line
	2350 1800 2500 1800
Wire Wire Line
	2500 1900 2350 1900
Wire Wire Line
	11300 8700 11450 8700
Wire Wire Line
	11300 8800 11450 8800
Wire Wire Line
	11300 8900 11450 8900
Wire Wire Line
	1050 8650 1300 8650
Wire Wire Line
	1050 8750 1300 8750
Wire Wire Line
	1050 8850 1300 8850
Wire Wire Line
	1300 8950 1050 8950
Wire Wire Line
	1300 9900 1050 9900
Wire Wire Line
	1050 10000 1300 10000
Wire Wire Line
	1300 10100 1050 10100
Wire Wire Line
	1050 10200 1300 10200
Wire Wire Line
	8700 7100 8700 7200
Wire Wire Line
	8700 7200 9200 7200
Wire Wire Line
	9200 7150 9200 7500
Wire Wire Line
	9200 7500 9350 7500
Connection ~ 9200 7200
Wire Wire Line
	7600 6800 8300 6800
Wire Wire Line
	8200 6800 8200 6900
Wire Wire Line
	8200 7200 8200 7400
Wire Wire Line
	8200 9200 8200 9500
Wire Wire Line
	7600 8800 8250 8800
Wire Wire Line
	8200 8800 8200 8900
Wire Wire Line
	7600 6800 7600 8800
Connection ~ 8200 8800
Connection ~ 8200 6800
Wire Wire Line
	9050 8800 9150 8800
Wire Wire Line
	9150 8800 9150 8900
Wire Wire Line
	8650 9100 8650 9200
Wire Wire Line
	8650 9200 9150 9200
Wire Wire Line
	9400 9500 9150 9500
Wire Wire Line
	9150 9500 9150 9200
Connection ~ 12450 1750
Wire Wire Line
	11800 2650 11850 2650
Wire Wire Line
	11800 1050 11800 3400
Wire Wire Line
	11800 2200 11500 2200
Wire Wire Line
	11800 1750 11850 1750
Connection ~ 11800 2200
Connection ~ 11800 1750
Wire Wire Line
	12200 1050 12200 1750
Connection ~ 12200 1750
Connection ~ 11800 2650
Wire Wire Line
	12200 3400 12200 2650
Connection ~ 12200 2650
Wire Wire Line
	12000 750  12350 750 
Wire Wire Line
	12350 750  12350 1200
Wire Wire Line
	12350 2650 12350 1500
Connection ~ 12350 2650
Wire Wire Line
	12000 3700 12650 3700
Wire Wire Line
	12150 1750 13050 1750
Wire Wire Line
	12150 2650 13050 2650
Connection ~ 14450 1750
Wire Wire Line
	15100 2650 15050 2650
Wire Wire Line
	15100 1050 15100 3400
Wire Wire Line
	15100 2200 15400 2200
Wire Wire Line
	15100 1750 15050 1750
Connection ~ 15100 2200
Connection ~ 15100 1750
Wire Wire Line
	14700 1750 14700 1050
Connection ~ 14700 1750
Connection ~ 15100 2650
Wire Wire Line
	14700 2650 14700 3400
Connection ~ 14700 2650
Wire Wire Line
	14900 750  14550 750 
Wire Wire Line
	14550 750  14550 1200
Wire Wire Line
	14550 2650 14550 1500
Connection ~ 14550 2650
Wire Wire Line
	14250 3700 14900 3700
Wire Wire Line
	13850 1750 14750 1750
Wire Wire Line
	13850 2650 14750 2650
Wire Wire Line
	13350 2650 13550 2650
Wire Wire Line
	13350 1750 13550 1750
Wire Wire Line
	13450 1750 13450 2800
Connection ~ 13450 2650
Connection ~ 13450 1750
Connection ~ 14050 1750
Wire Notes Line
	13350 600  13350 3750
Wire Notes Line
	13350 3750 11000 3750
Wire Notes Line
	11000 3750 11000 600 
Wire Notes Line
	11000 600  13350 600 
Wire Notes Line
	13550 600  13550 3750
Wire Notes Line
	13550 3750 15900 3750
Wire Notes Line
	15900 3750 15900 600 
Wire Notes Line
	15900 600  13550 600 
Wire Wire Line
	11300 9100 11450 9100
Wire Wire Line
	12750 9000 12750 9200
Wire Wire Line
	11550 4300 11550 4500
Connection ~ 11550 4400
Connection ~ 11450 9200
Connection ~ 12750 9200
Wire Wire Line
	12850 4300 12850 4500
Connection ~ 12850 4400
Connection ~ 12550 2650
Wire Wire Line
	12650 2950 12650 1750
Connection ~ 12650 1750
Wire Wire Line
	12650 3700 12650 3250
Connection ~ 14350 2650
Wire Wire Line
	14250 3700 14250 3250
Wire Wire Line
	14250 2950 14250 1750
Connection ~ 14250 1750
Connection ~ 12850 3900
Wire Wire Line
	12750 9200 12950 9200
Wire Wire Line
	2450 5950 2200 5950
Wire Wire Line
	2450 5950 2450 6050
Wire Wire Line
	2450 6150 2450 6200
Wire Wire Line
	2450 6200 1950 6200
Wire Wire Line
	1950 6200 1950 6150
Wire Wire Line
	2950 7000 3300 7000
Wire Wire Line
	2450 7600 2100 7600
Wire Wire Line
	5600 5450 5300 5450
Wire Wire Line
	5600 7300 5300 7300
Wire Wire Line
	4400 7100 4800 7100
Wire Wire Line
	4400 7600 4800 7600
Connection ~ 12850 1750
Wire Wire Line
	12450 1900 12450 1750
Wire Wire Line
	12550 2550 12550 2650
Wire Wire Line
	12850 3900 13950 3900
Wire Wire Line
	12850 4400 12950 4400
Wire Wire Line
	12850 4100 14050 4100
Connection ~ 13000 1750
Wire Wire Line
	11450 9000 11450 9200
Connection ~ 11450 9100
Connection ~ 12750 9100
Wire Wire Line
	11300 9300 11450 9300
Wire Wire Line
	13950 9300 12750 9300
Wire Wire Line
	2000 6800 2450 6800
Wire Wire Line
	2000 7000 2450 7000
Wire Wire Line
	2450 7200 2000 7200
Wire Wire Line
	2000 7300 2450 7300
Wire Wire Line
	2450 7500 2000 7500
Wire Wire Line
	2450 7700 2000 7700
Wire Wire Line
	2450 7800 2000 7800
Wire Wire Line
	2450 7900 2000 7900
Wire Wire Line
	3100 7600 2950 7600
Wire Wire Line
	3100 7700 2950 7700
Wire Wire Line
	3100 7800 2950 7800
Wire Wire Line
	3100 7900 2950 7900
Wire Wire Line
	5000 2400 4850 2400
Wire Wire Line
	5000 2300 5000 2200
Wire Wire Line
	5000 2200 4800 2200
Wire Wire Line
	2950 5450 3100 5450
Wire Wire Line
	4650 1950 4800 1950
Wire Wire Line
	4800 1950 4800 2200
Wire Wire Line
	5100 1200 5100 1400
Wire Wire Line
	5000 1300 5000 1400
Wire Wire Line
	4800 1350 4800 1400
Wire Notes Line
	1200 8100 6350 8100
Wire Notes Line
	6350 8100 6350 4700
Wire Notes Line
	1200 4700 1200 8100
Wire Notes Line
	600  700  600  3150
Wire Notes Line
	3000 700  3000 3150
Wire Notes Line
	3000 700  600  700 
Wire Notes Line
	6350 4700 1200 4700
Wire Wire Line
	1300 2900 1150 2900
Wire Wire Line
	1300 2800 1250 2800
Wire Notes Line
	3000 3150 600  3150
Wire Wire Line
	2950 5550 3100 5550
Wire Wire Line
	6700 10050 6550 10050
Connection ~ 5250 9550
Connection ~ 5250 9450
Connection ~ 5250 9350
Connection ~ 6550 9350
Connection ~ 6550 9450
Connection ~ 6550 9550
Wire Wire Line
	6550 9250 6550 9550
Wire Wire Line
	5250 9250 5250 9550
Wire Wire Line
	5250 9650 5250 9850
Connection ~ 5250 9750
Wire Wire Line
	5100 9750 5250 9750
Wire Wire Line
	6650 9450 6550 9450
Wire Wire Line
	5150 9450 5250 9450
Wire Wire Line
	5000 1350 4900 1350
Connection ~ 4900 1350
Connection ~ 5000 1350
Wire Notes Line
	3800 700  3800 3150
Wire Notes Line
	3800 3150 6050 3150
Wire Notes Line
	6050 3150 6050 700 
Wire Notes Line
	6050 700  3800 700 
Wire Wire Line
	4900 1350 4900 1400
Wire Wire Line
	7200 8200 7200 8400
Wire Wire Line
	2950 5950 3100 5950
Wire Wire Line
	3100 5950 3100 6000
Wire Wire Line
	2950 6050 2950 5950
Wire Wire Line
	2450 7400 1550 7400
Wire Wire Line
	2950 7400 3150 7400
Wire Wire Line
	3150 7400 3150 7000
Connection ~ 3150 7000
Wire Wire Line
	12850 3900 12850 4000
Wire Wire Line
	12850 4100 12850 4200
Wire Wire Line
	11550 4100 11550 4200
Wire Wire Line
	11550 3900 11550 4000
Wire Wire Line
	2200 2250 2500 2250
Wire Wire Line
	2500 2350 2200 2350
Wire Wire Line
	2200 2450 2500 2450
Wire Wire Line
	2500 2550 2200 2550
Wire Wire Line
	2450 6600 2000 6600
Wire Wire Line
	2000 6700 2450 6700
Wire Wire Line
	11450 4100 11550 4100
Wire Wire Line
	11450 3900 11550 3900
Wire Wire Line
	14350 2350 14350 2650
Wire Wire Line
	14450 1900 14450 1750
Wire Wire Line
	13950 3900 13950 1750
Connection ~ 13950 1750
Wire Wire Line
	14050 4100 14050 2650
Connection ~ 14050 2650
Wire Wire Line
	13000 4950 13000 2650
Connection ~ 13000 2650
Wire Wire Line
	12950 4400 12950 1750
Connection ~ 12950 1750
Wire Wire Line
	2000 6500 2450 6500
Wire Wire Line
	2000 6900 2450 6900
Wire Wire Line
	11550 4400 11250 4400
Wire Wire Line
	11250 4400 11250 4550
$EndSCHEMATC
